…
```
## # A tibble: 510 × 6
##        judet     localitate sectie_id  tur1  tur2  diff
##        <chr>          <chr>     <int> <int> <int> <int>
## 1  mehedinti       punghina     12718   813   496  -317
## 2   harghita       siculeni     10247   884   598  -286
## 3   harghita        remetea     10226   764   513  -251
## 4   harghita        remetea     10225   887   662  -225
## 5   harghita          cirta     10018   792   581  -211
## 6    giurgiu       ghimpati      9498  1243  1034  -209
## 7   harghita        remetea     10223   743   543  -200
## 8   harghita ciucsingeorgiu     10022   544   356  -188
## 9   harghita        danesti     10039   559   389  -170
## 10  harghita        remetea     10224   830   664  -166
## # ... with 500 more rows
```
Aggregating the votes on towns, in 88 towns there were less voters in the second round as compared to the first.


```
## Source: local data frame [88 x 5]
## Groups: judet [16]
## 
##        judet   localitate  tur1  tur2  diff
##        <chr>        <chr> <int> <int> <int>
## 1    giurgiu     ghimpati  4187  4001  -186
## 2   harghita      remetea  3224  2382  -842
## 3       dolj       cetate  3095  2990  -105
## 4   harghita        praid  2550  2231  -319
## 5   harghita       joseni  2445  2081  -364
## 6   harghita   sindominic  2271  1862  -409
## 7   harghita       corund  2227  2068  -159
## 8  teleorman      mosteni  2168  2158   -10
## 9   harghita lunca de jos  2141  1926  -215
## 10  harghita       lupeni  2029  1858  -171
## # ... with 78 more rows
```
…
Then I do the same thing for each county.

```
## # A tibble: 43 × 10
##        judet voturi_noi      incr tur1_kelemen tur1_macovei tur1_melescanu
##        <chr>      <dbl>     <dbl>        <dbl>        <dbl>          <dbl>
## 1  mehedinti      22198 0.3332480    0.9219929            1      0.5363126
## 2  teleorman      30413 0.3514803    1.0000000            1      1.0000000
## 3   botosani      33086 0.3722928    1.0000000            1      0.3037307
## 4      buzau      41798 0.3915988    1.0000000            1      1.0000000
## 5   ialomita      24886 0.4011137    1.0000000            1      0.9328125
## 6       dolj      64627 0.4070619    0.2744306            1      1.0000000
## 7     vaslui      32374 0.4224075    0.0000000            1      1.0000000
## 8       gorj      32670 0.4254507    0.8173090            1      1.0000000
## 9      arges      64979 0.4271487    1.0000000            1      1.0000000
## 10      iasi      67407 0.4277684    1.0000000            1      1.0000000
## # ... with 33 more rows, and 4 more variables: tur1_ponta <dbl>,
## #   tur1_tariceanu <dbl>, tur1_udrea <dbl>, tur1_vadim <dbl>
```
…
The interpretaton here depends on the height of each county in the plot. According to the model, in Cluj, strainatate (outside Romania), Harghita, Covasna, Mr. Johannis attracted over 90% of the new votes. A good result was also observed in Salaj, Alba, Satu Mare, Sibiu, Hunedoara, Mure, all counties in Transilvanya (where Mr. Johannis is most well-known). 
Places where Mr. Johannis only had a few of the new votes are Teleorman, Botosani, Buzau, Dambovita, Iasi, Vrancea, Mehedinti, Dolj, Gorj, etc. All of these are places where PSD has a very strong presence.


Then I repeat the same on the larger citites. Places where Mr. Johannis attracted a large proportion of the new votes:

```
## # A tibble: 112 × 5
##        judet  localitate voturi_noi      incr nemultumiti
##        <chr>       <chr>      <dbl>     <dbl>       <dbl>
## 1       cluj cluj-napoca      43015 0.8963372    38555.94
## 2  bucuresti     sector3      40694 0.7297068    29694.69
## 3  bucuresti     sector6      38417 0.7225150    27756.86
## 4      timis   timisoara      34229 0.7714991    26407.64
## 5  bucuresti     sector2      35689 0.6089141    21731.54
## 6       iasi        iasi      26680 0.7836373    20907.44
## 7  bucuresti     sector4      31805 0.6548331    20826.97
## 8  constanta   constanta      27101 0.7494657    20311.27
## 9      bihor      oradea      23805 0.7901695    18809.99
## 10 bucuresti     sector5      28289 0.6515461    18431.59
## # ... with 102 more rows
```

And cities where he failed to do so:

```
## # A tibble: 112 × 5
##            judet    localitate voturi_noi      incr nemultumiti
##            <chr>         <chr>      <dbl>     <dbl>       <dbl>
## 1      hunedoara       petrila       1429 0.1521632    217.4412
## 2  caras-severin       oravita        949 0.3552976    337.1774
## 3      hunedoara        lupeni       1173 0.3663211    429.6947
## 4          buzau ramnicu sarat       2448 0.1778596    435.4002
## 5           dolj      bailesti       1750 0.2723350    476.5862
## 6          buzau        nehoiu        794 0.6014396    477.5430
## 7       calarasi      oltenita       1756 0.2778029    487.8219
## 8          bacau      moinesti       1249 0.3919271    489.5170
## 9            olt       corabia        930 0.5273085    490.3969
## 10     hunedoara         calan        889 0.6452830    573.6566
## # ... with 102 more rows
```
…
